{
    "name": "Belgium (VAT)",
    "scope": "tax",
    "members": [
        {
            "type": "country",
            "id": "be",
            "name": "Belgium",
            "country_code": "BE"
        }
    ]
}