{
    "name": "France - Corsica (VAT)",
    "scope": "tax",
    "members": [
        {
            "type": "country",
            "id": "fr",
            "name": "France (Corsica)",
            "country_code": "FR",
            "included_postal_codes": "\/(20)[0-9]{3}\/"
        }
    ]
}