{
    "name": "Italy (VAT)",
    "scope": "tax",
    "members": [
        {
            "type": "country",
            "id": "it",
            "name": "Italy (ex.  Livigno, Campione d’Italia and Lake Lugano)",
            "country_code": "IT",
            "excluded_postal_codes": "23030, 22060"
        }
    ]
}